{
	"partitions" : [
		{
			"name" : "Top",
			"pins" : [
				{
					"name" : "next_bit",
					"strict" : false
				},
				{
					"name" : "counter[0]",
					"strict" : false
				},
				{
					"name" : "counter[1]",
					"strict" : false
				}
			]
		}
	]
}