Analysis & Synthesis report for driver_WS2812b
Mon Jan 28 11:06:29 2019
Quartus Prime Version 18.1.0 Build 625 09/12/2018 SJ Lite Edition


---------------------
; Table of Contents ;
---------------------
  1. Legal Notice
  2. Analysis & Synthesis Summary
  3. Analysis & Synthesis Settings
  4. Parallel Compilation
  5. Analysis & Synthesis Source Files Read
  6. Analysis & Synthesis Resource Usage Summary
  7. Analysis & Synthesis Resource Utilization by Entity
  8. State Machine - |driver_WS2812b|cadenceur_DEL:cadenceurLeds|EtatPresent
  9. Registers Removed During Synthesis
 10. General Register Statistics
 11. Multiplexer Restructuring Statistics (Restructuring Performed)
 12. Parameter Settings for User Entity Instance: Top-level Entity: |driver_WS2812b
 13. Parameter Settings for User Entity Instance: div_freq:GenClkBit
 14. Parameter Settings for User Entity Instance: cadenceur_DEL:cadenceurLeds
 15. Parameter Settings for User Entity Instance: N_bit_memory:colorLedMem
 16. Parameter Settings for User Entity Instance: selecteur_bit:selectorBit|count_mod_N:cnt_sel
 17. Parameter Settings for User Entity Instance: selecteur_bit:selectorBit|mux_N1:mux_sel
 18. Port Connectivity Checks: "selecteur_bit:selectorBit|count_mod_N:cnt_sel"
 19. Port Connectivity Checks: "cadenceur_DEL:cadenceurLeds"
 20. Port Connectivity Checks: "gene_dout:doutGenerator"
 21. Post-Synthesis Netlist Statistics for Top Partition
 22. Elapsed Time Per Partition
 23. Analysis & Synthesis Messages



----------------
; Legal Notice ;
----------------
Copyright (C) 2018  Intel Corporation. All rights reserved.
Your use of Intel Corporation's design tools, logic functions 
and other software and tools, and its AMPP partner logic 
functions, and any output files from any of the foregoing 
(including device programming or simulation files), and any 
associated documentation or information are expressly subject 
to the terms and conditions of the Intel Program License 
Subscription Agreement, the Intel Quartus Prime License Agreement,
the Intel FPGA IP License Agreement, or other applicable license
agreement, including, without limitation, that your use is for
the sole purpose of programming logic devices manufactured by
Intel and sold by Intel or its authorized distributors.  Please
refer to the applicable agreement for further details.



+-------------------------------------------------------------------------------+
; Analysis & Synthesis Summary                                                  ;
+---------------------------------+---------------------------------------------+
; Analysis & Synthesis Status     ; Successful - Mon Jan 28 11:06:29 2019       ;
; Quartus Prime Version           ; 18.1.0 Build 625 09/12/2018 SJ Lite Edition ;
; Revision Name                   ; driver_WS2812b                              ;
; Top-level Entity Name           ; driver_WS2812b                              ;
; Family                          ; Cyclone V                                   ;
; Logic utilization (in ALMs)     ; N/A                                         ;
; Total registers                 ; 42                                          ;
; Total pins                      ; 30                                          ;
; Total virtual pins              ; 0                                           ;
; Total block memory bits         ; 0                                           ;
; Total DSP Blocks                ; 0                                           ;
; Total HSSI RX PCSs              ; 0                                           ;
; Total HSSI PMA RX Deserializers ; 0                                           ;
; Total HSSI TX PCSs              ; 0                                           ;
; Total HSSI PMA TX Serializers   ; 0                                           ;
; Total PLLs                      ; 0                                           ;
; Total DLLs                      ; 0                                           ;
+---------------------------------+---------------------------------------------+


+---------------------------------------------------------------------------------------------------------------------------+
; Analysis & Synthesis Settings                                                                                             ;
+---------------------------------------------------------------------------------+--------------------+--------------------+
; Option                                                                          ; Setting            ; Default Value      ;
+---------------------------------------------------------------------------------+--------------------+--------------------+
; Device                                                                          ; 5CSEMA4U23C6       ;                    ;
; Top-level entity name                                                           ; driver_WS2812b     ; driver_WS2812b     ;
; Family name                                                                     ; Cyclone V          ; Cyclone V          ;
; Use smart compilation                                                           ; Off                ; Off                ;
; Enable parallel Assembler and Timing Analyzer during compilation                ; On                 ; On                 ;
; Enable compact report table                                                     ; Off                ; Off                ;
; Restructure Multiplexers                                                        ; Auto               ; Auto               ;
; MLAB Add Timing Constraints For Mixed-Port Feed-Through Mode Setting Don't Care ; Off                ; Off                ;
; Create Debugging Nodes for IP Cores                                             ; Off                ; Off                ;
; Preserve fewer node names                                                       ; On                 ; On                 ;
; Intel FPGA IP Evaluation Mode                                                   ; Enable             ; Enable             ;
; Verilog Version                                                                 ; Verilog_2001       ; Verilog_2001       ;
; VHDL Version                                                                    ; VHDL_1993          ; VHDL_1993          ;
; State Machine Processing                                                        ; Auto               ; Auto               ;
; Safe State Machine                                                              ; Off                ; Off                ;
; Extract Verilog State Machines                                                  ; On                 ; On                 ;
; Extract VHDL State Machines                                                     ; On                 ; On                 ;
; Ignore Verilog initial constructs                                               ; Off                ; Off                ;
; Iteration limit for constant Verilog loops                                      ; 5000               ; 5000               ;
; Iteration limit for non-constant Verilog loops                                  ; 250                ; 250                ;
; Add Pass-Through Logic to Inferred RAMs                                         ; On                 ; On                 ;
; Infer RAMs from Raw Logic                                                       ; On                 ; On                 ;
; Parallel Synthesis                                                              ; On                 ; On                 ;
; DSP Block Balancing                                                             ; Auto               ; Auto               ;
; NOT Gate Push-Back                                                              ; On                 ; On                 ;
; Power-Up Don't Care                                                             ; On                 ; On                 ;
; Remove Redundant Logic Cells                                                    ; Off                ; Off                ;
; Remove Duplicate Registers                                                      ; On                 ; On                 ;
; Ignore CARRY Buffers                                                            ; Off                ; Off                ;
; Ignore CASCADE Buffers                                                          ; Off                ; Off                ;
; Ignore GLOBAL Buffers                                                           ; Off                ; Off                ;
; Ignore ROW GLOBAL Buffers                                                       ; Off                ; Off                ;
; Ignore LCELL Buffers                                                            ; Off                ; Off                ;
; Ignore SOFT Buffers                                                             ; On                 ; On                 ;
; Limit AHDL Integers to 32 Bits                                                  ; Off                ; Off                ;
; Optimization Technique                                                          ; Balanced           ; Balanced           ;
; Carry Chain Length                                                              ; 70                 ; 70                 ;
; Auto Carry Chains                                                               ; On                 ; On                 ;
; Auto Open-Drain Pins                                                            ; On                 ; On                 ;
; Perform WYSIWYG Primitive Resynthesis                                           ; Off                ; Off                ;
; Auto ROM Replacement                                                            ; On                 ; On                 ;
; Auto RAM Replacement                                                            ; On                 ; On                 ;
; Auto DSP Block Replacement                                                      ; On                 ; On                 ;
; Auto Shift Register Replacement                                                 ; Auto               ; Auto               ;
; Allow Shift Register Merging across Hierarchies                                 ; Auto               ; Auto               ;
; Auto Clock Enable Replacement                                                   ; On                 ; On                 ;
; Strict RAM Replacement                                                          ; Off                ; Off                ;
; Allow Synchronous Control Signals                                               ; On                 ; On                 ;
; Force Use of Synchronous Clear Signals                                          ; Off                ; Off                ;
; Auto Resource Sharing                                                           ; Off                ; Off                ;
; Allow Any RAM Size For Recognition                                              ; Off                ; Off                ;
; Allow Any ROM Size For Recognition                                              ; Off                ; Off                ;
; Allow Any Shift Register Size For Recognition                                   ; Off                ; Off                ;
; Use LogicLock Constraints during Resource Balancing                             ; On                 ; On                 ;
; Ignore translate_off and synthesis_off directives                               ; Off                ; Off                ;
; Timing-Driven Synthesis                                                         ; On                 ; On                 ;
; Report Parameter Settings                                                       ; On                 ; On                 ;
; Report Source Assignments                                                       ; On                 ; On                 ;
; Report Connectivity Checks                                                      ; On                 ; On                 ;
; Ignore Maximum Fan-Out Assignments                                              ; Off                ; Off                ;
; Synchronization Register Chain Length                                           ; 3                  ; 3                  ;
; Power Optimization During Synthesis                                             ; Normal compilation ; Normal compilation ;
; HDL message level                                                               ; Level2             ; Level2             ;
; Suppress Register Optimization Related Messages                                 ; Off                ; Off                ;
; Number of Removed Registers Reported in Synthesis Report                        ; 5000               ; 5000               ;
; Number of Swept Nodes Reported in Synthesis Report                              ; 5000               ; 5000               ;
; Number of Inverted Registers Reported in Synthesis Report                       ; 100                ; 100                ;
; Clock MUX Protection                                                            ; On                 ; On                 ;
; Auto Gated Clock Conversion                                                     ; Off                ; Off                ;
; Block Design Naming                                                             ; Auto               ; Auto               ;
; SDC constraint protection                                                       ; Off                ; Off                ;
; Synthesis Effort                                                                ; Auto               ; Auto               ;
; Shift Register Replacement - Allow Asynchronous Clear Signal                    ; On                 ; On                 ;
; Pre-Mapping Resynthesis Optimization                                            ; Off                ; Off                ;
; Analysis & Synthesis Message Level                                              ; Medium             ; Medium             ;
; Disable Register Merging Across Hierarchies                                     ; Auto               ; Auto               ;
; Resource Aware Inference For Block RAM                                          ; On                 ; On                 ;
; Automatic Parallel Synthesis                                                    ; On                 ; On                 ;
; Partial Reconfiguration Bitstream ID                                            ; Off                ; Off                ;
+---------------------------------------------------------------------------------+--------------------+--------------------+


+------------------------------------------+
; Parallel Compilation                     ;
+----------------------------+-------------+
; Processors                 ; Number      ;
+----------------------------+-------------+
; Number detected on machine ; 4           ;
; Maximum allowed            ; 2           ;
;                            ;             ;
; Average used               ; 1.00        ;
; Maximum used               ; 2           ;
;                            ;             ;
; Usage by Processor         ; % Time Used ;
;     Processor 1            ; 100.0%      ;
;     Processor 2            ;   0.0%      ;
+----------------------------+-------------+


+----------------------------------------------------------------------------------------------------------------------------------------------------------------------------------------------------------------------+
; Analysis & Synthesis Source Files Read                                                                                                                                                                               ;
+----------------------------------+-----------------+------------------------------+------------------------------------------------------------------------------------------------------------------------+---------+
; File Name with User-Entered Path ; Used in Netlist ; File Type                    ; File Name with Absolute Path                                                                                           ; Library ;
+----------------------------------+-----------------+------------------------------+------------------------------------------------------------------------------------------------------------------------+---------+
; driver_WS2812b.v                 ; yes             ; User Verilog HDL File        ; /home/florian/Documents/Polytech/PFE/sources_HDL/Drivers_WS2812/driver_WS2812b/driver_WS2812b.v                        ;         ;
; div_freq.v                       ; yes             ; Auto-Found Verilog HDL File  ; /home/florian/Documents/Polytech/PFE/sources_HDL/Drivers_WS2812/driver_WS2812b/div_freq/div_freq.v                     ;         ;
; gene_dout.v                      ; yes             ; Auto-Found Verilog HDL File  ; /home/florian/Documents/Polytech/PFE/sources_HDL/Drivers_WS2812/driver_WS2812b/gene_dout/gene_dout.v                   ;         ;
; gene_next_bit.v                  ; yes             ; Auto-Found Verilog HDL File  ; /home/florian/Documents/Polytech/PFE/sources_HDL/Drivers_WS2812/driver_WS2812b/gene_dout/gene_next_bit/gene_next_bit.v ;         ;
; cadenceur_DEL.v                  ; yes             ; Auto-Found Verilog HDL File  ; /home/florian/Documents/Polytech/PFE/sources_HDL/Drivers_WS2812/driver_WS2812b/cadenceur_DEL/cadenceur_DEL.v           ;         ;
; N_bit_memory.v                   ; yes             ; Auto-Found Verilog HDL File  ; /home/florian/Documents/Polytech/PFE/sources_HDL/Drivers_WS2812/driver_WS2812b/N_bit_memory/N_bit_memory.v             ;         ;
; selecteur_bit.v                  ; yes             ; Auto-Found Verilog HDL File  ; /home/florian/Documents/Polytech/PFE/sources_HDL/Drivers_WS2812/driver_WS2812b/selecteur_bit/selecteur_bit.v           ;         ;
; count_mod_N.v                    ; yes             ; Auto-Found Verilog HDL File  ; /home/florian/Documents/Polytech/PFE/sources_HDL/Drivers_WS2812/driver_WS2812b/selecteur_bit/count_mod_N/count_mod_N.v ;         ;
; mux_N1.v                         ; yes             ; Auto-Found Verilog HDL File  ; /home/florian/Documents/Polytech/PFE/sources_HDL/Drivers_WS2812/driver_WS2812b/selecteur_bit/mux_N1/mux_N1.v           ;         ;
+----------------------------------+-----------------+------------------------------+------------------------------------------------------------------------------------------------------------------------+---------+


+--------------------------------------------------------------------------+
; Analysis & Synthesis Resource Usage Summary                              ;
+---------------------------------------------+----------------------------+
; Resource                                    ; Usage                      ;
+---------------------------------------------+----------------------------+
; Estimate of Logic utilization (ALMs needed) ; 42                         ;
;                                             ;                            ;
; Combinational ALUT usage for logic          ; 72                         ;
;     -- 7 input functions                    ; 0                          ;
;     -- 6 input functions                    ; 12                         ;
;     -- 5 input functions                    ; 13                         ;
;     -- 4 input functions                    ; 7                          ;
;     -- <=3 input functions                  ; 40                         ;
;                                             ;                            ;
; Dedicated logic registers                   ; 42                         ;
;                                             ;                            ;
; I/O pins                                    ; 30                         ;
;                                             ;                            ;
; Total DSP Blocks                            ; 0                          ;
;                                             ;                            ;
; Maximum fan-out node                        ; div_freq:GenClkBit|_ClkOut ;
; Maximum fan-out                             ; 37                         ;
; Total fan-out                               ; 420                        ;
; Average fan-out                             ; 2.41                       ;
+---------------------------------------------+----------------------------+


+-------------------------------------------------------------------------------------------------------------------------------------------------------------------------------------------------------------------------+
; Analysis & Synthesis Resource Utilization by Entity                                                                                                                                                                     ;
+----------------------------------+---------------------+---------------------------+-------------------+------------+------+--------------+---------------------------------------------+----------------+--------------+
; Compilation Hierarchy Node       ; Combinational ALUTs ; Dedicated Logic Registers ; Block Memory Bits ; DSP Blocks ; Pins ; Virtual Pins ; Full Hierarchy Name                         ; Entity Name    ; Library Name ;
+----------------------------------+---------------------+---------------------------+-------------------+------------+------+--------------+---------------------------------------------+----------------+--------------+
; |driver_WS2812b                  ; 72 (0)              ; 42 (0)                    ; 0                 ; 0          ; 30   ; 0            ; |driver_WS2812b                             ; driver_WS2812b ; work         ;
;    |cadenceur_DEL:cadenceurLeds| ; 67 (67)             ; 37 (37)                   ; 0                 ; 0          ; 0    ; 0            ; |driver_WS2812b|cadenceur_DEL:cadenceurLeds ; cadenceur_DEL  ; work         ;
;    |div_freq:GenClkBit|          ; 5 (5)               ; 5 (5)                     ; 0                 ; 0          ; 0    ; 0            ; |driver_WS2812b|div_freq:GenClkBit          ; div_freq       ; work         ;
+----------------------------------+---------------------+---------------------------+-------------------+------------+------+--------------+---------------------------------------------+----------------+--------------+
Note: For table entries with two numbers listed, the numbers in parentheses indicate the number of resources of the given type used by the specific entity alone. The numbers listed outside of parentheses indicate the total resources of the given type used by the specific entity and all of its sub-entities in the hierarchy.


Encoding Type:  One-Hot
+-----------------------------------------------------------------------------------------------+
; State Machine - |driver_WS2812b|cadenceur_DEL:cadenceurLeds|EtatPresent                       ;
+-------------------+------------------+-----------------+-------------------+------------------+
; Name              ; EtatPresent.STOP ; EtatPresent.RUN ; EtatPresent.START ; EtatPresent.IDLE ;
+-------------------+------------------+-----------------+-------------------+------------------+
; EtatPresent.IDLE  ; 0                ; 0               ; 0                 ; 0                ;
; EtatPresent.START ; 0                ; 0               ; 1                 ; 1                ;
; EtatPresent.RUN   ; 0                ; 1               ; 0                 ; 1                ;
; EtatPresent.STOP  ; 1                ; 0               ; 0                 ; 1                ;
+-------------------+------------------+-----------------+-------------------+------------------+


+----------------------------------------------------------------+
; Registers Removed During Synthesis                             ;
+-------------------------------------------+--------------------+
; Register name                             ; Reason for Removal ;
+-------------------------------------------+--------------------+
; cadenceur_DEL:cadenceurLeds|EtatPresent~5 ; Lost fanout        ;
; cadenceur_DEL:cadenceurLeds|EtatPresent~6 ; Lost fanout        ;
; Total Number of Removed Registers = 2     ;                    ;
+-------------------------------------------+--------------------+


+------------------------------------------------------+
; General Register Statistics                          ;
+----------------------------------------------+-------+
; Statistic                                    ; Value ;
+----------------------------------------------+-------+
; Total registers                              ; 42    ;
; Number of registers using Synchronous Clear  ; 32    ;
; Number of registers using Synchronous Load   ; 0     ;
; Number of registers using Asynchronous Clear ; 0     ;
; Number of registers using Asynchronous Load  ; 0     ;
; Number of registers using Clock Enable       ; 24    ;
; Number of registers using Preset             ; 0     ;
+----------------------------------------------+-------+


+-----------------------------------------------------------------------------------------------------------------------------------------------------------------------+
; Multiplexer Restructuring Statistics (Restructuring Performed)                                                                                                        ;
+--------------------+-----------+---------------+----------------------+------------------------+------------+---------------------------------------------------------+
; Multiplexer Inputs ; Bus Width ; Baseline Area ; Area if Restructured ; Saving if Restructured ; Registered ; Example Multiplexer Output                              ;
+--------------------+-----------+---------------+----------------------+------------------------+------------+---------------------------------------------------------+
; 10:1               ; 8 bits    ; 48 LEs        ; 0 LEs                ; 48 LEs                 ; Yes        ; |driver_WS2812b|cadenceur_DEL:cadenceurLeds|Cq[7]       ;
; 11:1               ; 24 bits   ; 168 LEs       ; 0 LEs                ; 168 LEs                ; Yes        ; |driver_WS2812b|cadenceur_DEL:cadenceurLeds|Cled[9]     ;
; 10:1               ; 4 bits    ; 24 LEs        ; 16 LEs               ; 8 LEs                  ; No         ; |driver_WS2812b|cadenceur_DEL:cadenceurLeds|EtatPresent ;
+--------------------+-----------+---------------+----------------------+------------------------+------------+---------------------------------------------------------+


+--------------------------------------------------------------------------------+
; Parameter Settings for User Entity Instance: Top-level Entity: |driver_WS2812b ;
+----------------+----------+----------------------------------------------------+
; Parameter Name ; Value    ; Type                                               ;
+----------------+----------+----------------------------------------------------+
; CLK_IN_HZ      ; 50000000 ; Signed Integer                                     ;
+----------------+----------+----------------------------------------------------+
Note: In order to hide this table in the UI and the text report file, please set the "Show Parameter Settings in Synthesis Report" option in "Analysis and Synthesis Settings -> More Settings" to "Off".


+-----------------------------------------------------------------+
; Parameter Settings for User Entity Instance: div_freq:GenClkBit ;
+----------------+-------+----------------------------------------+
; Parameter Name ; Value ; Type                                   ;
+----------------+-------+----------------------------------------+
; TAILLE_BUS     ; 4     ; Signed Integer                         ;
; NB             ; 15    ; Signed Integer                         ;
; NB_TON         ; 7     ; Signed Integer                         ;
; POLARITY       ; 0     ; Signed Integer                         ;
+----------------+-------+----------------------------------------+
Note: In order to hide this table in the UI and the text report file, please set the "Show Parameter Settings in Synthesis Report" option in "Analysis and Synthesis Settings -> More Settings" to "Off".


+--------------------------------------------------------------------------+
; Parameter Settings for User Entity Instance: cadenceur_DEL:cadenceurLeds ;
+----------------+-------+-------------------------------------------------+
; Parameter Name ; Value ; Type                                            ;
+----------------+-------+-------------------------------------------------+
; IDLE           ; 0     ; Signed Integer                                  ;
; START          ; 1     ; Signed Integer                                  ;
; RUN            ; 2     ; Signed Integer                                  ;
; STOP           ; 3     ; Signed Integer                                  ;
+----------------+-------+-------------------------------------------------+
Note: In order to hide this table in the UI and the text report file, please set the "Show Parameter Settings in Synthesis Report" option in "Analysis and Synthesis Settings -> More Settings" to "Off".


+-----------------------------------------------------------------------+
; Parameter Settings for User Entity Instance: N_bit_memory:colorLedMem ;
+----------------+-------+----------------------------------------------+
; Parameter Name ; Value ; Type                                         ;
+----------------+-------+----------------------------------------------+
; N_BIT          ; 24    ; Signed Integer                               ;
; POSEDGE        ; 1     ; Signed Integer                               ;
+----------------+-------+----------------------------------------------+
Note: In order to hide this table in the UI and the text report file, please set the "Show Parameter Settings in Synthesis Report" option in "Analysis and Synthesis Settings -> More Settings" to "Off".


+--------------------------------------------------------------------------------------------+
; Parameter Settings for User Entity Instance: selecteur_bit:selectorBit|count_mod_N:cnt_sel ;
+----------------+-------+-------------------------------------------------------------------+
; Parameter Name ; Value ; Type                                                              ;
+----------------+-------+-------------------------------------------------------------------+
; NB_BITS        ; 5     ; Signed Integer                                                    ;
; POSEDGE        ; 1     ; Signed Integer                                                    ;
; MODULO         ; 24    ; Signed Integer                                                    ;
; SET_LEVEL      ; 0     ; Signed Integer                                                    ;
; RESET_LEVEL    ; 0     ; Signed Integer                                                    ;
; UP_DOWN        ; 0     ; Signed Integer                                                    ;
+----------------+-------+-------------------------------------------------------------------+
Note: In order to hide this table in the UI and the text report file, please set the "Show Parameter Settings in Synthesis Report" option in "Analysis and Synthesis Settings -> More Settings" to "Off".


+---------------------------------------------------------------------------------------+
; Parameter Settings for User Entity Instance: selecteur_bit:selectorBit|mux_N1:mux_sel ;
+-------------------+-------+-----------------------------------------------------------+
; Parameter Name    ; Value ; Type                                                      ;
+-------------------+-------+-----------------------------------------------------------+
; TAILLE_BUS_INPUT  ; 24    ; Signed Integer                                            ;
; TAILLE_BUS_SELECT ; 5     ; Signed Integer                                            ;
+-------------------+-------+-----------------------------------------------------------+
Note: In order to hide this table in the UI and the text report file, please set the "Show Parameter Settings in Synthesis Report" option in "Analysis and Synthesis Settings -> More Settings" to "Off".


+--------------------------------------------------------------------------------------------------------------------------------------------------------------------------------------------------------------------+
; Port Connectivity Checks: "selecteur_bit:selectorBit|count_mod_N:cnt_sel"                                                                                                                                          ;
+------------+-------+----------+------------------------------------------------------------------------------------------------------------------------------------------------------------------------------------+
; Port       ; Type  ; Severity ; Details                                                                                                                                                                            ;
+------------+-------+----------+------------------------------------------------------------------------------------------------------------------------------------------------------------------------------------+
; aReset     ; Input ; Warning  ; Input port expression (32 bits) is wider than the input port (1 bits) it drives.  The 31 most-significant bit(s) in the expression will be dangling if they have no other fanouts. ;
; aReset[-1] ; Input ; Info     ; Stuck at VCC                                                                                                                                                                       ;
+------------+-------+----------+------------------------------------------------------------------------------------------------------------------------------------------------------------------------------------+


+------------------------------------------------------------------------------------------------------------------------------------------------------------------------------------------------------------------------+
; Port Connectivity Checks: "cadenceur_DEL:cadenceurLeds"                                                                                                                                                                ;
+----------------+-------+----------+------------------------------------------------------------------------------------------------------------------------------------------------------------------------------------+
; Port           ; Type  ; Severity ; Details                                                                                                                                                                            ;
+----------------+-------+----------+------------------------------------------------------------------------------------------------------------------------------------------------------------------------------------+
; nb_leds        ; Input ; Warning  ; Input port expression (32 bits) is wider than the input port (24 bits) it drives.  The 8 most-significant bit(s) in the expression will be dangling if they have no other fanouts. ;
; nb_leds[4..3]  ; Input ; Info     ; Stuck at VCC                                                                                                                                                                       ;
; nb_leds[23..5] ; Input ; Info     ; Stuck at GND                                                                                                                                                                       ;
; nb_leds[2..0]  ; Input ; Info     ; Stuck at GND                                                                                                                                                                       ;
+----------------+-------+----------+------------------------------------------------------------------------------------------------------------------------------------------------------------------------------------+


+----------------------------------------------------------------------------------------------------------------+
; Port Connectivity Checks: "gene_dout:doutGenerator"                                                            ;
+------+--------+----------+-------------------------------------------------------------------------------------+
; Port ; Type   ; Severity ; Details                                                                             ;
+------+--------+----------+-------------------------------------------------------------------------------------+
; dout ; Output ; Info     ; Connected to dangling logic. Logic that only feeds a dangling port will be removed. ;
+------+--------+----------+-------------------------------------------------------------------------------------+


+-----------------------------------------------------+
; Post-Synthesis Netlist Statistics for Top Partition ;
+-----------------------+-----------------------------+
; Type                  ; Count                       ;
+-----------------------+-----------------------------+
; arriav_ff             ; 42                          ;
;     ENA SCLR          ; 24                          ;
;     SCLR              ; 8                           ;
;     plain             ; 10                          ;
; arriav_lcell_comb     ; 74                          ;
;     arith             ; 32                          ;
;         1 data inputs ; 32                          ;
;     normal            ; 42                          ;
;         0 data inputs ; 1                           ;
;         1 data inputs ; 1                           ;
;         2 data inputs ; 3                           ;
;         3 data inputs ; 5                           ;
;         4 data inputs ; 7                           ;
;         5 data inputs ; 13                          ;
;         6 data inputs ; 12                          ;
; boundary_port         ; 30                          ;
;                       ;                             ;
; Max LUT depth         ; 4.00                        ;
; Average LUT depth     ; 2.80                        ;
+-----------------------+-----------------------------+


+-------------------------------+
; Elapsed Time Per Partition    ;
+----------------+--------------+
; Partition Name ; Elapsed Time ;
+----------------+--------------+
; Top            ; 00:00:00     ;
+----------------+--------------+


+-------------------------------+
; Analysis & Synthesis Messages ;
+-------------------------------+
Info: *******************************************************************
Info: Running Quartus Prime Analysis & Synthesis
    Info: Version 18.1.0 Build 625 09/12/2018 SJ Lite Edition
    Info: Processing started: Mon Jan 28 11:06:16 2019
Info: Command: quartus_map --read_settings_files=on --write_settings_files=off driver_WS2812b -c driver_WS2812b
Warning (18236): Number of processors has not been specified which may cause overloading on shared machines.  Set the global assignment NUM_PARALLEL_PROCESSORS in your QSF to an appropriate value for best performance.
Info (20030): Parallel compilation is enabled and will use 2 of the 2 processors detected
Info (12021): Found 1 design units, including 1 entities, in source file driver_WS2812b.v
    Info (12023): Found entity 1: driver_WS2812b File: /home/florian/Documents/Polytech/PFE/sources_HDL/Drivers_WS2812/driver_WS2812b/driver_WS2812b.v Line: 1
Info (12127): Elaborating entity "driver_WS2812b" for the top level hierarchy
Warning (12125): Using design file div_freq/div_freq.v, which is not specified as a design file for the current project, but contains definitions for 1 design units and 1 entities in project
    Info (12023): Found entity 1: div_freq File: /home/florian/Documents/Polytech/PFE/sources_HDL/Drivers_WS2812/driver_WS2812b/div_freq/div_freq.v Line: 1
Info (12128): Elaborating entity "div_freq" for hierarchy "div_freq:GenClkBit" File: /home/florian/Documents/Polytech/PFE/sources_HDL/Drivers_WS2812/driver_WS2812b/driver_WS2812b.v Line: 21
Warning (10230): Verilog HDL assignment warning at div_freq.v(27): truncated value with size 32 to match size of target (4) File: /home/florian/Documents/Polytech/PFE/sources_HDL/Drivers_WS2812/driver_WS2812b/div_freq/div_freq.v Line: 27
Warning (12125): Using design file gene_dout/gene_dout.v, which is not specified as a design file for the current project, but contains definitions for 1 design units and 1 entities in project
    Info (12023): Found entity 1: gene_dout File: /home/florian/Documents/Polytech/PFE/sources_HDL/Drivers_WS2812/driver_WS2812b/gene_dout/gene_dout.v Line: 1
Info (12128): Elaborating entity "gene_dout" for hierarchy "gene_dout:doutGenerator" File: /home/florian/Documents/Polytech/PFE/sources_HDL/Drivers_WS2812/driver_WS2812b/driver_WS2812b.v Line: 23
Warning (10230): Verilog HDL assignment warning at gene_dout.v(44): truncated value with size 32 to match size of target (2) File: /home/florian/Documents/Polytech/PFE/sources_HDL/Drivers_WS2812/driver_WS2812b/gene_dout/gene_dout.v Line: 44
Warning (12125): Using design file gene_dout/gene_next_bit/gene_next_bit.v, which is not specified as a design file for the current project, but contains definitions for 1 design units and 1 entities in project
    Info (12023): Found entity 1: gene_next_bit File: /home/florian/Documents/Polytech/PFE/sources_HDL/Drivers_WS2812/driver_WS2812b/gene_dout/gene_next_bit/gene_next_bit.v Line: 1
Info (12128): Elaborating entity "gene_next_bit" for hierarchy "gene_dout:doutGenerator|gene_next_bit:_gene_next_bit" File: /home/florian/Documents/Polytech/PFE/sources_HDL/Drivers_WS2812/driver_WS2812b/gene_dout/gene_dout.v Line: 15
Warning (10230): Verilog HDL assignment warning at gene_next_bit.v(6): truncated value with size 32 to match size of target (1) File: /home/florian/Documents/Polytech/PFE/sources_HDL/Drivers_WS2812/driver_WS2812b/gene_dout/gene_next_bit/gene_next_bit.v Line: 6
Warning (12125): Using design file cadenceur_DEL/cadenceur_DEL.v, which is not specified as a design file for the current project, but contains definitions for 1 design units and 1 entities in project
    Info (12023): Found entity 1: cadenceur_DEL File: /home/florian/Documents/Polytech/PFE/sources_HDL/Drivers_WS2812/driver_WS2812b/cadenceur_DEL/cadenceur_DEL.v Line: 1
Info (12128): Elaborating entity "cadenceur_DEL" for hierarchy "cadenceur_DEL:cadenceurLeds" File: /home/florian/Documents/Polytech/PFE/sources_HDL/Drivers_WS2812/driver_WS2812b/driver_WS2812b.v Line: 25
Warning (10230): Verilog HDL assignment warning at cadenceur_DEL.v(20): truncated value with size 32 to match size of target (1) File: /home/florian/Documents/Polytech/PFE/sources_HDL/Drivers_WS2812/driver_WS2812b/cadenceur_DEL/cadenceur_DEL.v Line: 20
Warning (10230): Verilog HDL assignment warning at cadenceur_DEL.v(25): truncated value with size 32 to match size of target (8) File: /home/florian/Documents/Polytech/PFE/sources_HDL/Drivers_WS2812/driver_WS2812b/cadenceur_DEL/cadenceur_DEL.v Line: 25
Warning (10230): Verilog HDL assignment warning at cadenceur_DEL.v(107): truncated value with size 32 to match size of target (24) File: /home/florian/Documents/Polytech/PFE/sources_HDL/Drivers_WS2812/driver_WS2812b/cadenceur_DEL/cadenceur_DEL.v Line: 107
Warning (10230): Verilog HDL assignment warning at cadenceur_DEL.v(135): truncated value with size 32 to match size of target (24) File: /home/florian/Documents/Polytech/PFE/sources_HDL/Drivers_WS2812/driver_WS2812b/cadenceur_DEL/cadenceur_DEL.v Line: 135
Warning (12125): Using design file N_bit_memory/N_bit_memory.v, which is not specified as a design file for the current project, but contains definitions for 1 design units and 1 entities in project
    Info (12023): Found entity 1: N_bit_memory File: /home/florian/Documents/Polytech/PFE/sources_HDL/Drivers_WS2812/driver_WS2812b/N_bit_memory/N_bit_memory.v Line: 1
Info (12128): Elaborating entity "N_bit_memory" for hierarchy "N_bit_memory:colorLedMem" File: /home/florian/Documents/Polytech/PFE/sources_HDL/Drivers_WS2812/driver_WS2812b/driver_WS2812b.v Line: 29
Warning (12125): Using design file selecteur_bit/selecteur_bit.v, which is not specified as a design file for the current project, but contains definitions for 1 design units and 1 entities in project
    Info (12023): Found entity 1: selecteur_bit File: /home/florian/Documents/Polytech/PFE/sources_HDL/Drivers_WS2812/driver_WS2812b/selecteur_bit/selecteur_bit.v Line: 1
Info (12128): Elaborating entity "selecteur_bit" for hierarchy "selecteur_bit:selectorBit" File: /home/florian/Documents/Polytech/PFE/sources_HDL/Drivers_WS2812/driver_WS2812b/driver_WS2812b.v Line: 31
Warning (12125): Using design file selecteur_bit/count_mod_N/count_mod_N.v, which is not specified as a design file for the current project, but contains definitions for 1 design units and 1 entities in project
    Info (12023): Found entity 1: count_mod_N File: /home/florian/Documents/Polytech/PFE/sources_HDL/Drivers_WS2812/driver_WS2812b/selecteur_bit/count_mod_N/count_mod_N.v Line: 1
Info (12128): Elaborating entity "count_mod_N" for hierarchy "selecteur_bit:selectorBit|count_mod_N:cnt_sel" File: /home/florian/Documents/Polytech/PFE/sources_HDL/Drivers_WS2812/driver_WS2812b/selecteur_bit/selecteur_bit.v Line: 10
Warning (10230): Verilog HDL assignment warning at count_mod_N.v(26): truncated value with size 32 to match size of target (5) File: /home/florian/Documents/Polytech/PFE/sources_HDL/Drivers_WS2812/driver_WS2812b/selecteur_bit/count_mod_N/count_mod_N.v Line: 26
Warning (10230): Verilog HDL assignment warning at count_mod_N.v(45): truncated value with size 32 to match size of target (5) File: /home/florian/Documents/Polytech/PFE/sources_HDL/Drivers_WS2812/driver_WS2812b/selecteur_bit/count_mod_N/count_mod_N.v Line: 45
Warning (10230): Verilog HDL assignment warning at count_mod_N.v(49): truncated value with size 32 to match size of target (5) File: /home/florian/Documents/Polytech/PFE/sources_HDL/Drivers_WS2812/driver_WS2812b/selecteur_bit/count_mod_N/count_mod_N.v Line: 49
Warning (12125): Using design file selecteur_bit/mux_N1/mux_N1.v, which is not specified as a design file for the current project, but contains definitions for 1 design units and 1 entities in project
    Info (12023): Found entity 1: mux_N1 File: /home/florian/Documents/Polytech/PFE/sources_HDL/Drivers_WS2812/driver_WS2812b/selecteur_bit/mux_N1/mux_N1.v Line: 1
Info (12128): Elaborating entity "mux_N1" for hierarchy "selecteur_bit:selectorBit|mux_N1:mux_sel" File: /home/florian/Documents/Polytech/PFE/sources_HDL/Drivers_WS2812/driver_WS2812b/selecteur_bit/selecteur_bit.v Line: 12
Warning (12241): 2 hierarchies have connectivity warnings - see the Connectivity Checks report folder
Warning (13024): Output pins are stuck at VCC or GND
    Warning (13410): Pin "dout" is stuck at GND File: /home/florian/Documents/Polytech/PFE/sources_HDL/Drivers_WS2812/driver_WS2812b/driver_WS2812b.v Line: 8
Info (286030): Timing-Driven Synthesis is running
Info (17049): 2 registers lost all their fanouts during netlist optimizations.
Info (16010): Generating hard_block partition "hard_block:auto_generated_inst"
    Info (16011): Adding 0 node(s), including 0 DDIO, 0 PLL, 0 transceiver and 0 LCELL
Warning (21074): Design contains 24 input pin(s) that do not drive logic
    Warning (15610): No output dependent on input pin "data[0]" File: /home/florian/Documents/Polytech/PFE/sources_HDL/Drivers_WS2812/driver_WS2812b/driver_WS2812b.v Line: 5
    Warning (15610): No output dependent on input pin "data[1]" File: /home/florian/Documents/Polytech/PFE/sources_HDL/Drivers_WS2812/driver_WS2812b/driver_WS2812b.v Line: 5
    Warning (15610): No output dependent on input pin "data[2]" File: /home/florian/Documents/Polytech/PFE/sources_HDL/Drivers_WS2812/driver_WS2812b/driver_WS2812b.v Line: 5
    Warning (15610): No output dependent on input pin "data[3]" File: /home/florian/Documents/Polytech/PFE/sources_HDL/Drivers_WS2812/driver_WS2812b/driver_WS2812b.v Line: 5
    Warning (15610): No output dependent on input pin "data[4]" File: /home/florian/Documents/Polytech/PFE/sources_HDL/Drivers_WS2812/driver_WS2812b/driver_WS2812b.v Line: 5
    Warning (15610): No output dependent on input pin "data[5]" File: /home/florian/Documents/Polytech/PFE/sources_HDL/Drivers_WS2812/driver_WS2812b/driver_WS2812b.v Line: 5
    Warning (15610): No output dependent on input pin "data[6]" File: /home/florian/Documents/Polytech/PFE/sources_HDL/Drivers_WS2812/driver_WS2812b/driver_WS2812b.v Line: 5
    Warning (15610): No output dependent on input pin "data[7]" File: /home/florian/Documents/Polytech/PFE/sources_HDL/Drivers_WS2812/driver_WS2812b/driver_WS2812b.v Line: 5
    Warning (15610): No output dependent on input pin "data[8]" File: /home/florian/Documents/Polytech/PFE/sources_HDL/Drivers_WS2812/driver_WS2812b/driver_WS2812b.v Line: 5
    Warning (15610): No output dependent on input pin "data[9]" File: /home/florian/Documents/Polytech/PFE/sources_HDL/Drivers_WS2812/driver_WS2812b/driver_WS2812b.v Line: 5
    Warning (15610): No output dependent on input pin "data[10]" File: /home/florian/Documents/Polytech/PFE/sources_HDL/Drivers_WS2812/driver_WS2812b/driver_WS2812b.v Line: 5
    Warning (15610): No output dependent on input pin "data[11]" File: /home/florian/Documents/Polytech/PFE/sources_HDL/Drivers_WS2812/driver_WS2812b/driver_WS2812b.v Line: 5
    Warning (15610): No output dependent on input pin "data[12]" File: /home/florian/Documents/Polytech/PFE/sources_HDL/Drivers_WS2812/driver_WS2812b/driver_WS2812b.v Line: 5
    Warning (15610): No output dependent on input pin "data[13]" File: /home/florian/Documents/Polytech/PFE/sources_HDL/Drivers_WS2812/driver_WS2812b/driver_WS2812b.v Line: 5
    Warning (15610): No output dependent on input pin "data[14]" File: /home/florian/Documents/Polytech/PFE/sources_HDL/Drivers_WS2812/driver_WS2812b/driver_WS2812b.v Line: 5
    Warning (15610): No output dependent on input pin "data[15]" File: /home/florian/Documents/Polytech/PFE/sources_HDL/Drivers_WS2812/driver_WS2812b/driver_WS2812b.v Line: 5
    Warning (15610): No output dependent on input pin "data[16]" File: /home/florian/Documents/Polytech/PFE/sources_HDL/Drivers_WS2812/driver_WS2812b/driver_WS2812b.v Line: 5
    Warning (15610): No output dependent on input pin "data[17]" File: /home/florian/Documents/Polytech/PFE/sources_HDL/Drivers_WS2812/driver_WS2812b/driver_WS2812b.v Line: 5
    Warning (15610): No output dependent on input pin "data[18]" File: /home/florian/Documents/Polytech/PFE/sources_HDL/Drivers_WS2812/driver_WS2812b/driver_WS2812b.v Line: 5
    Warning (15610): No output dependent on input pin "data[19]" File: /home/florian/Documents/Polytech/PFE/sources_HDL/Drivers_WS2812/driver_WS2812b/driver_WS2812b.v Line: 5
    Warning (15610): No output dependent on input pin "data[20]" File: /home/florian/Documents/Polytech/PFE/sources_HDL/Drivers_WS2812/driver_WS2812b/driver_WS2812b.v Line: 5
    Warning (15610): No output dependent on input pin "data[21]" File: /home/florian/Documents/Polytech/PFE/sources_HDL/Drivers_WS2812/driver_WS2812b/driver_WS2812b.v Line: 5
    Warning (15610): No output dependent on input pin "data[22]" File: /home/florian/Documents/Polytech/PFE/sources_HDL/Drivers_WS2812/driver_WS2812b/driver_WS2812b.v Line: 5
    Warning (15610): No output dependent on input pin "data[23]" File: /home/florian/Documents/Polytech/PFE/sources_HDL/Drivers_WS2812/driver_WS2812b/driver_WS2812b.v Line: 5
Info (21057): Implemented 102 device resources after synthesis - the final resource count might be different
    Info (21058): Implemented 27 input pins
    Info (21059): Implemented 3 output pins
    Info (21061): Implemented 72 logic cells
Info: Quartus Prime Analysis & Synthesis was successful. 0 errors, 47 warnings
    Info: Peak virtual memory: 1008 megabytes
    Info: Processing ended: Mon Jan 28 11:06:29 2019
    Info: Elapsed time: 00:00:13
    Info: Total CPU time (on all processors): 00:00:28


